^C:\PROJECTS\MACHINA_C++_PROJECT\SPACESHOOTERMACHINA\SPACESHOOTER\GAME_MATH.CPP
/c /I"C:\PROJECTS\MACHINA_C++_PROJECT\SPACESHOOTERMACHINA\SPACESHOOTER\LIBS\WIN_64_SFML-2.5.1\INCLUDE" /I"C:\PROJECTS\MACHINA_C++_PROJECT\SPACESHOOTERMACHINA\SPACESHOOTER\LIBS\RAPIDXML-1.13" /I"C:\PROJECTS\MACHINA_C++_PROJECT\SPACESHOOTERMACHINA\SPACESHOOTER\LIBS\SDL2-2.0.14\INCLUDE" /I"C:\PROJECTS\MACHINA_C++_PROJECT\SPACESHOOTERMACHINA\SPACESHOOTER\LIBS\SDL2_IMAGE-2.0.5\INCLUDE" /ZI /JMC /nologo /W3 /WX- /diagnostics:column /sdl /Od /D _DEBUG /D _CONSOLE /D _UNICODE /D UNICODE /Gm- /EHsc /RTC1 /MDd /GS /fp:precise /permissive- /Zc:wchar_t /Zc:forScope /Zc:inline /Fo"X64\DEBUG\\" /Fd"X64\DEBUG\VC142.PDB" /Gd /TP /FC C:\PROJECTS\MACHINA_C++_PROJECT\SPACESHOOTERMACHINA\SPACESHOOTER\GAME_MATH.CPP
^C:\PROJECTS\MACHINA_C++_PROJECT\SPACESHOOTERMACHINA\SPACESHOOTER\BONES_MATH.CPP
/c /I"C:\PROJECTS\MACHINA_C++_PROJECT\SPACESHOOTERMACHINA\SPACESHOOTER\LIBS\WIN_64_SFML-2.5.1\INCLUDE" /I"C:\PROJECTS\MACHINA_C++_PROJECT\SPACESHOOTERMACHINA\SPACESHOOTER\LIBS\RAPIDXML-1.13" /I"C:\PROJECTS\MACHINA_C++_PROJECT\SPACESHOOTERMACHINA\SPACESHOOTER\LIBS\SDL2-2.0.14\INCLUDE" /I"C:\PROJECTS\MACHINA_C++_PROJECT\SPACESHOOTERMACHINA\SPACESHOOTER\LIBS\SDL2_IMAGE-2.0.5\INCLUDE" /ZI /JMC /nologo /W3 /WX- /diagnostics:column /sdl /Od /D _DEBUG /D _CONSOLE /D _UNICODE /D UNICODE /Gm- /EHsc /RTC1 /MDd /GS /fp:precise /permissive- /Zc:wchar_t /Zc:forScope /Zc:inline /Fo"X64\DEBUG\\" /Fd"X64\DEBUG\VC142.PDB" /Gd /TP /FC C:\PROJECTS\MACHINA_C++_PROJECT\SPACESHOOTERMACHINA\SPACESHOOTER\BONES_MATH.CPP
^C:\PROJECTS\MACHINA_C++_PROJECT\SPACESHOOTERMACHINA\SPACESHOOTER\BONES_BEHAVIOUR_SYSTEMS.CPP
/c /I"C:\PROJECTS\MACHINA_C++_PROJECT\SPACESHOOTERMACHINA\SPACESHOOTER\LIBS\WIN_64_SFML-2.5.1\INCLUDE" /I"C:\PROJECTS\MACHINA_C++_PROJECT\SPACESHOOTERMACHINA\SPACESHOOTER\LIBS\RAPIDXML-1.13" /I"C:\PROJECTS\MACHINA_C++_PROJECT\SPACESHOOTERMACHINA\SPACESHOOTER\LIBS\SDL2-2.0.14\INCLUDE" /I"C:\PROJECTS\MACHINA_C++_PROJECT\SPACESHOOTERMACHINA\SPACESHOOTER\LIBS\SDL2_IMAGE-2.0.5\INCLUDE" /ZI /JMC /nologo /W3 /WX- /diagnostics:column /sdl /Od /D _DEBUG /D _CONSOLE /D _UNICODE /D UNICODE /Gm- /EHsc /RTC1 /MDd /GS /fp:precise /permissive- /Zc:wchar_t /Zc:forScope /Zc:inline /Fo"X64\DEBUG\\" /Fd"X64\DEBUG\VC142.PDB" /Gd /TP /FC C:\PROJECTS\MACHINA_C++_PROJECT\SPACESHOOTERMACHINA\SPACESHOOTER\BONES_BEHAVIOUR_SYSTEMS.CPP
^C:\PROJECTS\MACHINA_C++_PROJECT\SPACESHOOTERMACHINA\SPACESHOOTER\MAIN.CPP
/c /I"C:\PROJECTS\MACHINA_C++_PROJECT\SPACESHOOTERMACHINA\SPACESHOOTER\LIBS\WIN_64_SFML-2.5.1\INCLUDE" /I"C:\PROJECTS\MACHINA_C++_PROJECT\SPACESHOOTERMACHINA\SPACESHOOTER\LIBS\RAPIDXML-1.13" /I"C:\PROJECTS\MACHINA_C++_PROJECT\SPACESHOOTERMACHINA\SPACESHOOTER\LIBS\SDL2-2.0.14\INCLUDE" /I"C:\PROJECTS\MACHINA_C++_PROJECT\SPACESHOOTERMACHINA\SPACESHOOTER\LIBS\SDL2_IMAGE-2.0.5\INCLUDE" /ZI /JMC /nologo /W3 /WX- /diagnostics:column /sdl /Od /D _DEBUG /D _CONSOLE /D _UNICODE /D UNICODE /Gm- /EHsc /RTC1 /MDd /GS /fp:precise /permissive- /Zc:wchar_t /Zc:forScope /Zc:inline /Fo"X64\DEBUG\\" /Fd"X64\DEBUG\VC142.PDB" /Gd /TP /FC C:\PROJECTS\MACHINA_C++_PROJECT\SPACESHOOTERMACHINA\SPACESHOOTER\MAIN.CPP
^C:\PROJECTS\MACHINA_C++_PROJECT\SPACESHOOTERMACHINA\SPACESHOOTER\SDL_LAYER.CPP
/c /I"C:\PROJECTS\MACHINA_C++_PROJECT\SPACESHOOTERMACHINA\SPACESHOOTER\LIBS\WIN_64_SFML-2.5.1\INCLUDE" /I"C:\PROJECTS\MACHINA_C++_PROJECT\SPACESHOOTERMACHINA\SPACESHOOTER\LIBS\RAPIDXML-1.13" /I"C:\PROJECTS\MACHINA_C++_PROJECT\SPACESHOOTERMACHINA\SPACESHOOTER\LIBS\SDL2-2.0.14\INCLUDE" /I"C:\PROJECTS\MACHINA_C++_PROJECT\SPACESHOOTERMACHINA\SPACESHOOTER\LIBS\SDL2_IMAGE-2.0.5\INCLUDE" /ZI /JMC /nologo /W3 /WX- /diagnostics:column /sdl /Od /D _DEBUG /D _CONSOLE /D _UNICODE /D UNICODE /Gm- /EHsc /RTC1 /MDd /GS /fp:precise /permissive- /Zc:wchar_t /Zc:forScope /Zc:inline /Fo"X64\DEBUG\\" /Fd"X64\DEBUG\VC142.PDB" /Gd /TP /FC C:\PROJECTS\MACHINA_C++_PROJECT\SPACESHOOTERMACHINA\SPACESHOOTER\SDL_LAYER.CPP
^C:\PROJECTS\MACHINA_C++_PROJECT\SPACESHOOTERMACHINA\SPACESHOOTER\GAME_LAYER.CPP
/c /I"C:\PROJECTS\MACHINA_C++_PROJECT\SPACESHOOTERMACHINA\SPACESHOOTER\LIBS\WIN_64_SFML-2.5.1\INCLUDE" /I"C:\PROJECTS\MACHINA_C++_PROJECT\SPACESHOOTERMACHINA\SPACESHOOTER\LIBS\RAPIDXML-1.13" /I"C:\PROJECTS\MACHINA_C++_PROJECT\SPACESHOOTERMACHINA\SPACESHOOTER\LIBS\SDL2-2.0.14\INCLUDE" /I"C:\PROJECTS\MACHINA_C++_PROJECT\SPACESHOOTERMACHINA\SPACESHOOTER\LIBS\SDL2_IMAGE-2.0.5\INCLUDE" /ZI /JMC /nologo /W3 /WX- /diagnostics:column /sdl /Od /D _DEBUG /D _CONSOLE /D _UNICODE /D UNICODE /Gm- /EHsc /RTC1 /MDd /GS /fp:precise /permissive- /Zc:wchar_t /Zc:forScope /Zc:inline /Fo"X64\DEBUG\\" /Fd"X64\DEBUG\VC142.PDB" /Gd /TP /FC C:\PROJECTS\MACHINA_C++_PROJECT\SPACESHOOTERMACHINA\SPACESHOOTER\GAME_LAYER.CPP
^C:\PROJECTS\MACHINA_C++_PROJECT\SPACESHOOTERMACHINA\SPACESHOOTER\GAME_PHYSICS.CPP
/c /I"C:\PROJECTS\MACHINA_C++_PROJECT\SPACESHOOTERMACHINA\SPACESHOOTER\LIBS\WIN_64_SFML-2.5.1\INCLUDE" /I"C:\PROJECTS\MACHINA_C++_PROJECT\SPACESHOOTERMACHINA\SPACESHOOTER\LIBS\RAPIDXML-1.13" /I"C:\PROJECTS\MACHINA_C++_PROJECT\SPACESHOOTERMACHINA\SPACESHOOTER\LIBS\SDL2-2.0.14\INCLUDE" /I"C:\PROJECTS\MACHINA_C++_PROJECT\SPACESHOOTERMACHINA\SPACESHOOTER\LIBS\SDL2_IMAGE-2.0.5\INCLUDE" /ZI /JMC /nologo /W3 /WX- /diagnostics:column /sdl /Od /D _DEBUG /D _CONSOLE /D _UNICODE /D UNICODE /Gm- /EHsc /RTC1 /MDd /GS /fp:precise /permissive- /Zc:wchar_t /Zc:forScope /Zc:inline /Fo"X64\DEBUG\\" /Fd"X64\DEBUG\VC142.PDB" /Gd /TP /FC C:\PROJECTS\MACHINA_C++_PROJECT\SPACESHOOTERMACHINA\SPACESHOOTER\GAME_PHYSICS.CPP
^C:\PROJECTS\MACHINA_C++_PROJECT\SPACESHOOTERMACHINA\SPACESHOOTER\SFML_LAYER.CPP
/c /I"C:\PROJECTS\MACHINA_C++_PROJECT\SPACESHOOTERMACHINA\SPACESHOOTER\LIBS\WIN_64_SFML-2.5.1\INCLUDE" /I"C:\PROJECTS\MACHINA_C++_PROJECT\SPACESHOOTERMACHINA\SPACESHOOTER\LIBS\RAPIDXML-1.13" /I"C:\PROJECTS\MACHINA_C++_PROJECT\SPACESHOOTERMACHINA\SPACESHOOTER\LIBS\SDL2-2.0.14\INCLUDE" /I"C:\PROJECTS\MACHINA_C++_PROJECT\SPACESHOOTERMACHINA\SPACESHOOTER\LIBS\SDL2_IMAGE-2.0.5\INCLUDE" /ZI /JMC /nologo /W3 /WX- /diagnostics:column /sdl /Od /D _DEBUG /D _CONSOLE /D _UNICODE /D UNICODE /Gm- /EHsc /RTC1 /MDd /GS /fp:precise /permissive- /Zc:wchar_t /Zc:forScope /Zc:inline /Fo"X64\DEBUG\\" /Fd"X64\DEBUG\VC142.PDB" /Gd /TP /FC C:\PROJECTS\MACHINA_C++_PROJECT\SPACESHOOTERMACHINA\SPACESHOOTER\SFML_LAYER.CPP
