^C:\PROJECTS\MACHINA_C++_PROJECT\SPACESHOOTERMACHINA\SPACESHOOTER\X64\DEBUG\BONES_BEHAVIOUR_SYSTEMS.OBJ|C:\PROJECTS\MACHINA_C++_PROJECT\SPACESHOOTERMACHINA\SPACESHOOTER\X64\DEBUG\BONES_MATH.OBJ|C:\PROJECTS\MACHINA_C++_PROJECT\SPACESHOOTERMACHINA\SPACESHOOTER\X64\DEBUG\GAME_LAYER.OBJ|C:\PROJECTS\MACHINA_C++_PROJECT\SPACESHOOTERMACHINA\SPACESHOOTER\X64\DEBUG\GAME_PHYSICS.OBJ|C:\PROJECTS\MACHINA_C++_PROJECT\SPACESHOOTERMACHINA\SPACESHOOTER\X64\DEBUG\MAIN.OBJ|C:\PROJECTS\MACHINA_C++_PROJECT\SPACESHOOTERMACHINA\SPACESHOOTER\X64\DEBUG\SDL_LAYER.OBJ|C:\PROJECTS\MACHINA_C++_PROJECT\SPACESHOOTERMACHINA\SPACESHOOTER\X64\DEBUG\SFML_LAYER.OBJ
/OUT:"C:\PROJECTS\MACHINA_C++_PROJECT\SPACESHOOTERMACHINA\SPACESHOOTER\X64\DEBUG\SPACESHOOTER.EXE" /INCREMENTAL /NOLOGO /LIBPATH:"C:\PROJECTS\MACHINA_C++_PROJECT\SPACESHOOTERMACHINA\SPACESHOOTER\LIBS\SDL2_IMAGE-2.0.5\LIB\X64" /LIBPATH:"C:\PROJECTS\MACHINA_C++_PROJECT\SPACESHOOTERMACHINA\SPACESHOOTER\LIBS\SDL2-2.0.14\LIB\X64" /LIBPATH:"C:\PROJECTS\MACHINA_C++_PROJECT\SPACESHOOTERMACHINA\SPACESHOOTER\LIBS\WIN_64_SFML-2.5.1\LIB" SDL2.LIB SDL2MAIN.LIB SDL2_IMAGE.LIB OPENGL32.LIB "SFML-SYSTEM-D.LIB" "SFML-WINDOW-D.LIB" "SFML-GRAPHICS-D.LIB" /MANIFEST /MANIFESTUAC:"level='asInvoker' uiAccess='false'" /manifest:embed /DEBUG:FASTLINK /PDB:"C:\PROJECTS\MACHINA_C++_PROJECT\SPACESHOOTERMACHINA\SPACESHOOTER\X64\DEBUG\SPACESHOOTER.PDB" /SUBSYSTEM:CONSOLE /TLBID:1 /DYNAMICBASE /NXCOMPAT /IMPLIB:"C:\PROJECTS\MACHINA_C++_PROJECT\SPACESHOOTERMACHINA\SPACESHOOTER\X64\DEBUG\SPACESHOOTER.LIB" /MACHINE:X64 X64\DEBUG\BONES_BEHAVIOUR_SYSTEMS.OBJ
X64\DEBUG\GAME_LAYER.OBJ
X64\DEBUG\BONES_MATH.OBJ
X64\DEBUG\GAME_PHYSICS.OBJ
X64\DEBUG\MAIN.OBJ
X64\DEBUG\SDL_LAYER.OBJ
X64\DEBUG\SFML_LAYER.OBJ
