^C:\PROJECTS\MACHINA_C++_PROJECT\SPACESHOOTERMACHINA\SPACESHOOTER\X64\DEBUG\BONES_BEHAVIOUR_SYSTEMS.OBJ|C:\PROJECTS\MACHINA_C++_PROJECT\SPACESHOOTERMACHINA\SPACESHOOTER\X64\DEBUG\BONES_MATH.OBJ|C:\PROJECTS\MACHINA_C++_PROJECT\SPACESHOOTERMACHINA\SPACESHOOTER\X64\DEBUG\GAME_LAYER.OBJ|C:\PROJECTS\MACHINA_C++_PROJECT\SPACESHOOTERMACHINA\SPACESHOOTER\X64\DEBUG\GAME_PHYSICS.OBJ|C:\PROJECTS\MACHINA_C++_PROJECT\SPACESHOOTERMACHINA\SPACESHOOTER\X64\DEBUG\MAIN.OBJ|C:\PROJECTS\MACHINA_C++_PROJECT\SPACESHOOTERMACHINA\SPACESHOOTER\X64\DEBUG\SDL_LAYER.OBJ|C:\PROJECTS\MACHINA_C++_PROJECT\SPACESHOOTERMACHINA\SPACESHOOTER\X64\DEBUG\SFML_LAYER.OBJ
C:\PROJECTS\MACHINA_C++_PROJECT\SPACESHOOTERMACHINA\SPACESHOOTER\X64\DEBUG\SPACESHOOTER.EXE
C:\PROJECTS\MACHINA_C++_PROJECT\SPACESHOOTERMACHINA\SPACESHOOTER\X64\DEBUG\SPACESHOOTER.ILK
C:\PROJECTS\MACHINA_C++_PROJECT\SPACESHOOTERMACHINA\SPACESHOOTER\X64\DEBUG\SPACESHOOTER.PDB
